IP Address,Mac Address,Vendor
10.172.219.117,84:8e:0c:1d:58:60,"Apple, Inc."
10.192.125.251,6c:f3:7f:ca:30:92,"Aruba, a Hewlett Packard Enterprise Company"
10.172.219.26,00:19:d2:83:b1:36,Intel Corporate
10.191.155.13,10:68:3f:4a:47:c5,LG Electronics (Mobile Communications)
10.191.155.13,00:24:36:c2:a7:02,"Apple, Inc."
